\contentsline {section}{\numberline {1}Overview}{2}{section.1}
\contentsline {subsection}{\numberline {1.1}Rationale}{2}{subsection.1.1}
\contentsline {subsection}{\numberline {1.2}Components}{2}{subsection.1.2}
\contentsline {subsection}{\numberline {1.3}Process}{2}{subsection.1.3}
\contentsline {subsection}{\numberline {1.4}Features}{2}{subsection.1.4}
\contentsline {section}{\numberline {2}Operation}{2}{section.2}
\contentsline {subsection}{\numberline {2.1}Normal Operation}{2}{subsection.2.1}
\contentsline {subsection}{\numberline {2.2}Troubleshooting}{3}{subsection.2.2}
\contentsline {section}{\numberline {3}Details}{3}{section.3}
\contentsline {subsection}{\numberline {3.1}Configuration}{3}{subsection.3.1}
\contentsline {subsubsection}{\numberline {3.1.1}Controlling the Pi}{3}{subsubsection.3.1.1}
\contentsline {paragraph}{Internet Connection}{3}{section*.2}
\contentsline {paragraph}{Wired Connection}{3}{section*.3}
\contentsline {subsubsection}{\numberline {3.1.2}Wire Connections}{3}{subsubsection.3.1.2}
\contentsline {subsubsection}{\numberline {3.1.3}Bluetooth Addresses }{3}{subsubsection.3.1.3}
<<<<<<< HEAD
\contentsline {paragraph}{Editing btAddresses.txt}{4}{section*.4}
\contentsline {paragraph}{Quick Command Reference}{4}{section*.5}
\contentsline {subsubsection}{\numberline {3.1.4}LED Data }{5}{subsubsection.3.1.4}
\contentsline {paragraph}{Scanning}{5}{section*.6}
\contentsline {paragraph}{Holding Lock}{5}{section*.7}
\contentsline {paragraph}{Unlock}{5}{section*.8}
\contentsline {paragraph}{Found Address}{5}{section*.9}
\contentsline {subsection}{\numberline {3.2}Components}{6}{subsection.3.2}
\contentsline {subsubsection}{\numberline {3.2.1}Circuit}{6}{subsubsection.3.2.1}
\contentsline {subsubsection}{\numberline {3.2.2}External Components}{7}{subsubsection.3.2.2}
\contentsline {paragraph}{Electric Strike}{7}{section*.10}
\contentsline {paragraph}{Door Status Switch}{7}{section*.11}
\contentsline {paragraph}{Script Break Switch}{7}{section*.12}
\contentsline {paragraph}{Power Supply}{7}{section*.13}
=======
\contentsline {subsubsection}{\numberline {3.1.4}LED Data }{4}{subsubsection.3.1.4}
\contentsline {paragraph}{Scanning}{4}{section*.4}
\contentsline {paragraph}{Holding Lock}{4}{section*.5}
\contentsline {paragraph}{Unlock}{4}{section*.6}
\contentsline {paragraph}{Found Address}{5}{section*.7}
\contentsline {subsection}{\numberline {3.2}Components}{5}{subsection.3.2}
\contentsline {subsubsection}{\numberline {3.2.1}Circuit}{5}{subsubsection.3.2.1}
\contentsline {subsubsection}{\numberline {3.2.2}External Components}{6}{subsubsection.3.2.2}
\contentsline {paragraph}{Electric Strike}{6}{section*.8}
\contentsline {paragraph}{Door Status Switch}{6}{section*.9}
\contentsline {paragraph}{Script Break Switch}{6}{section*.10}
\contentsline {paragraph}{Power Supply}{6}{section*.11}
>>>>>>> 3f9bba4ccf55d31e98bacba1e3fce4c3477c9ef4
\contentsline {subsection}{\numberline {3.3}Code}{7}{subsection.3.3}
\contentsline {subsubsection}{\numberline {3.3.1}Initialization}{7}{subsubsection.3.3.1}
\contentsline {subsubsection}{\numberline {3.3.2}LED function}{8}{subsubsection.3.3.2}
\contentsline {subsubsection}{\numberline {3.3.3}Door State function}{8}{subsubsection.3.3.3}
<<<<<<< HEAD
\contentsline {paragraph}{\texttt {unlock}}{8}{section*.17}
\contentsline {paragraph}{\texttt {lock}}{8}{section*.18}
\contentsline {paragraph}{\texttt {hold}}{9}{section*.19}
\contentsline {subsubsection}{\numberline {3.3.4}Main Function}{9}{subsubsection.3.3.4}
\contentsline {section}{\numberline {4}Planned Features}{11}{section.4}
\contentsline {subsection}{\numberline {4.1}Web Server Control}{11}{subsection.4.1}
\contentsline {section}{\numberline {5}Selected References/Appendices}{12}{section.5}
\contentsline {subsection}{\numberline {5.1}Online References}{12}{subsection.5.1}
\contentsline {subsubsection}{\numberline {5.1.1}Code Repository}{12}{subsubsection.5.1.1}
\contentsline {subsection}{\numberline {5.2}Script}{12}{subsection.5.2}
=======
\contentsline {paragraph}{\texttt {unlock}}{8}{section*.15}
\contentsline {paragraph}{\texttt {lock}}{8}{section*.16}
\contentsline {paragraph}{\texttt {hold}}{8}{section*.17}
\contentsline {subsubsection}{\numberline {3.3.4}Main Function}{8}{subsubsection.3.3.4}
\contentsline {section}{\numberline {4}Planned Features}{10}{section.4}
\contentsline {subsection}{\numberline {4.1}Web Server Control}{10}{subsection.4.1}
\contentsline {section}{\numberline {5}Selected References/Appendices}{11}{section.5}
\contentsline {subsection}{\numberline {5.1}Online References}{11}{subsection.5.1}
\contentsline {subsection}{\numberline {5.2}Script}{11}{subsection.5.2}
>>>>>>> 3f9bba4ccf55d31e98bacba1e3fce4c3477c9ef4
