\relax 
\providecommand\hyper@newdestlabel[2]{}
\providecommand\HyperFirstAtBeginDocument{\AtBeginDocument}
\HyperFirstAtBeginDocument{\ifx\hyper@anchor\@undefined
\global\let\oldcontentsline\contentsline
\gdef\contentsline#1#2#3#4{\oldcontentsline{#1}{#2}{#3}}
\global\let\oldnewlabel\newlabel
\gdef\newlabel#1#2{\newlabelxx{#1}#2}
\gdef\newlabelxx#1#2#3#4#5#6{\oldnewlabel{#1}{{#2}{#3}}}
\AtEndDocument{\ifx\hyper@anchor\@undefined
\let\contentsline\oldcontentsline
\let\newlabel\oldnewlabel
\fi}
\fi}
\global\let\hyper@last\relax 
\gdef\HyperFirstAtBeginDocument#1{#1}
\providecommand\HyField@AuxAddToFields[1]{}
\providecommand\HyField@AuxAddToCoFields[2]{}
\@writefile{toc}{\contentsline {section}{\numberline {1}Overview}{2}{section.1}}
\@writefile{toc}{\contentsline {subsection}{\numberline {1.1}Rationale}{2}{subsection.1.1}}
\@writefile{toc}{\contentsline {subsection}{\numberline {1.2}Components}{2}{subsection.1.2}}
\@writefile{toc}{\contentsline {subsection}{\numberline {1.3}Process}{2}{subsection.1.3}}
\newlabel{subsec:Process}{{1.3}{2}{Process}{subsection.1.3}{}}
\@writefile{toc}{\contentsline {subsection}{\numberline {1.4}Features}{2}{subsection.1.4}}
\@writefile{toc}{\contentsline {section}{\numberline {2}Operation}{2}{section.2}}
\@writefile{toc}{\contentsline {subsection}{\numberline {2.1}Normal Operation}{2}{subsection.2.1}}
\@writefile{toc}{\contentsline {subsection}{\numberline {2.2}Troubleshooting}{3}{subsection.2.2}}
\@writefile{toc}{\contentsline {section}{\numberline {3}Details}{3}{section.3}}
\@writefile{toc}{\contentsline {subsection}{\numberline {3.1}Configuration}{3}{subsection.3.1}}
\@writefile{toc}{\contentsline {subsubsection}{\numberline {3.1.1}Controlling the Pi}{3}{subsubsection.3.1.1}}
\newlabel{config:ssh}{{3.1.1}{3}{Internet Connection}{section*.2}{}}
\@writefile{toc}{\contentsline {paragraph}{Internet Connection}{3}{section*.2}}
\@writefile{toc}{\contentsline {paragraph}{Wired Connection}{3}{section*.3}}
\@writefile{toc}{\contentsline {subsubsection}{\numberline {3.1.2}Wire Connections}{3}{subsubsection.3.1.2}}
\@writefile{lot}{\contentsline {table}{\numberline {1}{\ignorespaces Terminal Block Port Description\relax }}{3}{table.1}}
\newlabel{tab:terminal}{{1}{3}{Terminal Block Port Description\relax }{table.1}{}}
\newlabel{sec:btAddr}{{3.1.3}{3}{Bluetooth Addresses}{subsubsection.3.1.3}{}}
\@writefile{toc}{\contentsline {subsubsection}{\numberline {3.1.3}Bluetooth Addresses }{3}{subsubsection.3.1.3}}
<<<<<<< HEAD
\@writefile{toc}{\contentsline {paragraph}{Editing btAddresses.txt}{4}{section*.4}}
\@writefile{toc}{\contentsline {paragraph}{Quick Command Reference}{4}{section*.5}}
\newlabel{sec:LED}{{3.1.4}{5}{LED Data}{subsubsection.3.1.4}{}}
\@writefile{toc}{\contentsline {subsubsection}{\numberline {3.1.4}LED Data }{5}{subsubsection.3.1.4}}
\@writefile{toc}{\contentsline {paragraph}{Scanning}{5}{section*.6}}
\@writefile{toc}{\contentsline {paragraph}{Holding Lock}{5}{section*.7}}
\@writefile{toc}{\contentsline {paragraph}{Unlock}{5}{section*.8}}
\@writefile{toc}{\contentsline {paragraph}{Found Address}{5}{section*.9}}
\@writefile{toc}{\contentsline {subsection}{\numberline {3.2}Components}{6}{subsection.3.2}}
\@writefile{toc}{\contentsline {subsubsection}{\numberline {3.2.1}Circuit}{6}{subsubsection.3.2.1}}
\@writefile{lof}{\contentsline {figure}{\numberline {1}{\ignorespaces Breadboarded Circuit\relax }}{6}{figure.1}}
\@writefile{lof}{\contentsline {figure}{\numberline {2}{\ignorespaces Door Unlock Circuit\relax }}{6}{figure.2}}
\newlabel{fig:unlock_schmatic}{{2}{6}{Door Unlock Circuit\relax }{figure.2}{}}
\@writefile{toc}{\contentsline {subsubsection}{\numberline {3.2.2}External Components}{7}{subsubsection.3.2.2}}
\@writefile{toc}{\contentsline {paragraph}{Electric Strike}{7}{section*.10}}
\@writefile{toc}{\contentsline {paragraph}{Door Status Switch}{7}{section*.11}}
\@writefile{toc}{\contentsline {paragraph}{Script Break Switch}{7}{section*.12}}
\@writefile{toc}{\contentsline {paragraph}{Power Supply}{7}{section*.13}}
=======
\newlabel{sec:LED}{{3.1.4}{4}{LED Data}{subsubsection.3.1.4}{}}
\@writefile{toc}{\contentsline {subsubsection}{\numberline {3.1.4}LED Data }{4}{subsubsection.3.1.4}}
\@writefile{toc}{\contentsline {paragraph}{Scanning}{4}{section*.4}}
\@writefile{toc}{\contentsline {paragraph}{Holding Lock}{4}{section*.5}}
\@writefile{toc}{\contentsline {paragraph}{Unlock}{4}{section*.6}}
\@writefile{toc}{\contentsline {paragraph}{Found Address}{5}{section*.7}}
\@writefile{toc}{\contentsline {subsection}{\numberline {3.2}Components}{5}{subsection.3.2}}
\@writefile{toc}{\contentsline {subsubsection}{\numberline {3.2.1}Circuit}{5}{subsubsection.3.2.1}}
\@writefile{lof}{\contentsline {figure}{\numberline {1}{\ignorespaces Breadboarded Circuit\relax }}{5}{figure.1}}
\@writefile{lof}{\contentsline {figure}{\numberline {2}{\ignorespaces Door Unlock Circuit\relax }}{6}{figure.2}}
\newlabel{fig:unlock_schmatic}{{2}{6}{Door Unlock Circuit\relax }{figure.2}{}}
\@writefile{toc}{\contentsline {subsubsection}{\numberline {3.2.2}External Components}{6}{subsubsection.3.2.2}}
\@writefile{toc}{\contentsline {paragraph}{Electric Strike}{6}{section*.8}}
\@writefile{toc}{\contentsline {paragraph}{Door Status Switch}{6}{section*.9}}
\@writefile{toc}{\contentsline {paragraph}{Script Break Switch}{6}{section*.10}}
\@writefile{toc}{\contentsline {paragraph}{Power Supply}{6}{section*.11}}
>>>>>>> 3f9bba4ccf55d31e98bacba1e3fce4c3477c9ef4
\@writefile{toc}{\contentsline {subsection}{\numberline {3.3}Code}{7}{subsection.3.3}}
\@writefile{toc}{\contentsline {subsubsection}{\numberline {3.3.1}Initialization}{7}{subsubsection.3.3.1}}
\@writefile{toc}{\contentsline {subsubsection}{\numberline {3.3.2}LED function}{8}{subsubsection.3.3.2}}
\@writefile{toc}{\contentsline {subsubsection}{\numberline {3.3.3}Door State function}{8}{subsubsection.3.3.3}}
<<<<<<< HEAD
\@writefile{toc}{\contentsline {paragraph}{\texttt  {unlock}}{8}{section*.17}}
\@writefile{toc}{\contentsline {paragraph}{\texttt  {lock}}{8}{section*.18}}
\@writefile{toc}{\contentsline {paragraph}{\texttt  {hold}}{9}{section*.19}}
\@writefile{toc}{\contentsline {subsubsection}{\numberline {3.3.4}Main Function}{9}{subsubsection.3.3.4}}
\@writefile{lof}{\contentsline {figure}{\numberline {3}{\ignorespaces Flowchart of door locking algorithm\relax }}{10}{figure.3}}
\newlabel{fig:algorithm}{{3}{10}{Flowchart of door locking algorithm\relax }{figure.3}{}}
\@writefile{toc}{\contentsline {section}{\numberline {4}Planned Features}{11}{section.4}}
\@writefile{toc}{\contentsline {subsection}{\numberline {4.1}Web Server Control}{11}{subsection.4.1}}
\@writefile{toc}{\contentsline {section}{\numberline {5}Selected References/Appendices}{12}{section.5}}
\@writefile{toc}{\contentsline {subsection}{\numberline {5.1}Online References}{12}{subsection.5.1}}
\@writefile{toc}{\contentsline {subsubsection}{\numberline {5.1.1}Code Repository}{12}{subsubsection.5.1.1}}
\@writefile{toc}{\contentsline {subsection}{\numberline {5.2}Script}{12}{subsection.5.2}}
\@writefile{lol}{\contentsline {lstlisting}{../door\textunderscore script.py}{12}{lstlisting.-4}}
=======
\@writefile{toc}{\contentsline {paragraph}{\texttt  {unlock}}{8}{section*.15}}
\@writefile{toc}{\contentsline {paragraph}{\texttt  {lock}}{8}{section*.16}}
\@writefile{toc}{\contentsline {paragraph}{\texttt  {hold}}{8}{section*.17}}
\@writefile{toc}{\contentsline {subsubsection}{\numberline {3.3.4}Main Function}{8}{subsubsection.3.3.4}}
\@writefile{lof}{\contentsline {figure}{\numberline {3}{\ignorespaces Flowchart of door locking algorithm\relax }}{9}{figure.3}}
\newlabel{fig:algorithm}{{3}{9}{Flowchart of door locking algorithm\relax }{figure.3}{}}
\@writefile{toc}{\contentsline {section}{\numberline {4}Planned Features}{10}{section.4}}
\@writefile{toc}{\contentsline {subsection}{\numberline {4.1}Web Server Control}{10}{subsection.4.1}}
\@writefile{toc}{\contentsline {section}{\numberline {5}Selected References/Appendices}{11}{section.5}}
\@writefile{toc}{\contentsline {subsection}{\numberline {5.1}Online References}{11}{subsection.5.1}}
\@writefile{toc}{\contentsline {subsection}{\numberline {5.2}Script}{11}{subsection.5.2}}
\@writefile{lol}{\contentsline {lstlisting}{../door\textunderscore script.py}{11}{lstlisting.-4}}
>>>>>>> 3f9bba4ccf55d31e98bacba1e3fce4c3477c9ef4
